INDEX VERSION 1.127+C:\Users\Arthur\Documents\swekrepo\testArtghur\.metadata\.plugins\org.eclipse.jdt.core
358050146.index
949515501.index
2143716467.index
3176364129.index
847618560.index
1687884261.index
248351807.index
844601494.index
3097394219.index
2958705335.index
1654984216.index
3776425001.index
2448026493.index
881303192.index
3520661010.index
290714306.index
3963179895.index
2394392208.index
881895235.index
